('C:\\Users\\thoma\\Google Drive\\OneDrive\\Documents\\Final '
 'Project\\Code\\Main\\build\\HSDetect\\out00-PKG.pkg',
 {'BINARY': 1,
  'DATA': 1,
  'EXECUTABLE': 1,
  'EXTENSION': 1,
  'PYMODULE': 1,
  'PYSOURCE': 1,
  'PYZ': 0},
 [('out00-PYZ.pyz',
   'C:\\Users\\thoma\\Google Drive\\OneDrive\\Documents\\Final '
   'Project\\Code\\Main\\build\\HSDetect\\out00-PYZ.pyz',
   'PYZ'),
  ('struct',
   'c:\\program files (x86)\\microsoft visual '
   'studio\\shared\\python36_64\\lib\\struct.pyo',
   'PYMODULE'),
  ('pyimod01_os_path',
   'c:\\program files (x86)\\microsoft visual '
   'studio\\shared\\python36_64\\lib\\site-packages\\PyInstaller\\loader\\pyimod01_os_path.pyc',
   'PYMODULE'),
  ('pyimod02_archive',
   'c:\\program files (x86)\\microsoft visual '
   'studio\\shared\\python36_64\\lib\\site-packages\\PyInstaller\\loader\\pyimod02_archive.pyc',
   'PYMODULE'),
  ('pyimod03_importers',
   'c:\\program files (x86)\\microsoft visual '
   'studio\\shared\\python36_64\\lib\\site-packages\\PyInstaller\\loader\\pyimod03_importers.pyc',
   'PYMODULE'),
  ('pyiboot01_bootstrap',
   'c:\\program files (x86)\\microsoft visual '
   'studio\\shared\\python36_64\\lib\\site-packages\\PyInstaller\\loader\\pyiboot01_bootstrap.py',
   'PYSOURCE'),
  ('pyi_rth__tkinter',
   'c:\\program files (x86)\\microsoft visual '
   'studio\\shared\\python36_64\\lib\\site-packages\\PyInstaller\\loader\\rthooks\\pyi_rth__tkinter.py',
   'PYSOURCE'),
  ('pyi_rth_pkgres',
   'c:\\program files (x86)\\microsoft visual '
   'studio\\shared\\python36_64\\lib\\site-packages\\PyInstaller\\loader\\rthooks\\pyi_rth_pkgres.py',
   'PYSOURCE'),
  ('pyi_rth_multiprocessing',
   'c:\\program files (x86)\\microsoft visual '
   'studio\\shared\\python36_64\\lib\\site-packages\\PyInstaller\\loader\\rthooks\\pyi_rth_multiprocessing.py',
   'PYSOURCE'),
  ('pyi_rth_traitlets',
   'c:\\program files (x86)\\microsoft visual '
   'studio\\shared\\python36_64\\lib\\site-packages\\PyInstaller\\loader\\rthooks\\pyi_rth_traitlets.py',
   'PYSOURCE'),
  ('HSDetect',
   'C:\\Users\\thoma\\Google Drive\\OneDrive\\Documents\\Final '
   'Project\\Code\\Main\\HSDetect.py',
   'PYSOURCE'),
  ('HSDetect.exe.manifest',
   'C:\\Users\\thoma\\Google Drive\\OneDrive\\Documents\\Final '
   'Project\\Code\\Main\\build\\HSDetect\\HSDetect.exe.manifest',
   'BINARY')],
 True,
 False,
 False)
